<?xml version="1.0" encoding="UTF-8" standalone="no"?>
<svg
   xmlns:dc="http://purl.org/dc/elements/1.1/"
   xmlns:cc="http://creativecommons.org/ns#"
   xmlns:rdf="http://www.w3.org/1999/02/22-rdf-syntax-ns#"
   xmlns:svg="http://www.w3.org/2000/svg"
   xmlns="http://www.w3.org/2000/svg"
   xmlns:sodipodi="http://sodipodi.sourceforge.net/DTD/sodipodi-0.dtd"
   xmlns:inkscape="http://www.inkscape.org/namespaces/inkscape"
   sodipodi:docname="shapes-f12.svg"
   inkscape:version="1.0beta1 (a4ee55bc41, 2019-11-15)"
   sodipodi:version="0.32"
   id="svg4368"
   viewBox="0 0 300 70"
   height="70"
   width="300"
   version="1.1">
  <defs
     id="defs3" />
  <sodipodi:namedview
     inkscape:window-maximized="0"
     inkscape:window-y="27"
     inkscape:window-x="54"
     inkscape:window-height="1053"
     inkscape:window-width="1866"
     inkscape:guide-bbox="true"
     showguides="true"
     units="px"
     showgrid="false"
     inkscape:document-rotation="0"
     inkscape:current-layer="layer1"
     inkscape:document-units="px"
     inkscape:cy="-2.7978518"
     inkscape:cx="324.77314"
     inkscape:zoom="1.4"
     inkscape:pageshadow="2"
     inkscape:pageopacity="0.0"
     borderopacity="1.0"
     bordercolor="#666666"
     pagecolor="#ffffff"
     id="base"
     inkscape:lockguides="true" />
  <metadata
     id="metadata4">
    <rdf:RDF>
      <cc:Work
         rdf:about="">
        <dc:format>image/svg+xml</dc:format>
        <dc:type
           rdf:resource="http://purl.org/dc/dcmitype/StillImage" />
        <dc:title />
      </cc:Work>
    </rdf:RDF>
  </metadata>
  <g
     id="layer1"
     inkscape:groupmode="layer"
     inkscape:label="Layer 1">
    <ellipse
       transform="matrix(0.91395027,0.40582621,-0.8751583,0.48383669,0,0)"
       id="path2133"
       style="color:#000000;fill:#ffd300;fill-opacity:0.147157;fill-rule:evenodd;stroke:#000000;stroke-width:0.839911;stroke-linecap:butt;stroke-linejoin:miter;stroke-miterlimit:4;stroke-dashoffset:0;stroke-opacity:1;marker:none;marker-start:none;marker-mid:none;marker-end:none"
       cx="129.12505"
       cy="-36.548973"
       rx="60.786411"
       ry="6.6322904" />
    <ellipse
       transform="matrix(0.91395027,0.40582621,-0.8751583,0.48383669,0,0)"
       id="path2136"
       style="color:#000000;fill:#ffd300;fill-opacity:0.147157;fill-rule:evenodd;stroke:#000000;stroke-width:0.839911;stroke-linecap:butt;stroke-linejoin:miter;stroke-miterlimit:4;stroke-dashoffset:0;stroke-opacity:1;marker:none;marker-start:none;marker-mid:none;marker-end:none"
       cx="129.12505"
       cy="-36.548973"
       rx="81.47419"
       ry="12.263424" />
    <ellipse
       transform="matrix(0.91395027,0.40582621,-0.8751583,0.48383669,0,0)"
       id="path3396"
       style="color:#000000;fill:#ffd300;fill-opacity:0.147157;fill-rule:evenodd;stroke:#000000;stroke-width:0.839911;stroke-linecap:butt;stroke-linejoin:miter;stroke-miterlimit:4;stroke-dashoffset:0;stroke-opacity:1;marker:none;marker-start:none;marker-mid:none;marker-end:none"
       cx="129.12505"
       cy="-36.548973"
       rx="52.813068"
       ry="55.473732" />
    <ellipse
       transform="matrix(0.91395027,0.40582621,-0.8751583,0.48383669,0,0)"
       id="path2135"
       style="color:#000000;fill:#ffd300;fill-opacity:0.147157;fill-rule:evenodd;stroke:#000000;stroke-width:0.839911;stroke-linecap:butt;stroke-linejoin:miter;stroke-miterlimit:4;stroke-dashoffset:0;stroke-opacity:1;marker:none;marker-start:none;marker-mid:none;marker-end:none"
       cx="129.12505"
       cy="-36.548973"
       rx="32.588856"
       ry="22.826532" />
    <ellipse
       transform="matrix(0.91395027,0.40582621,-0.8751583,0.48383669,0,0)"
       id="path2774"
       style="color:#000000;fill:#ffd300;fill-opacity:0.147157;fill-rule:evenodd;stroke:#000000;stroke-width:0.839911;stroke-linecap:butt;stroke-linejoin:miter;stroke-miterlimit:4;stroke-dashoffset:0;stroke-opacity:1;marker:none;marker-start:none;marker-mid:none;marker-end:none"
       cx="129.12505"
       cy="-36.548973"
       rx="6.8571439"
       ry="42.355843" />
    <ellipse
       transform="matrix(0.91395027,0.40582621,-0.8751583,0.48383669,0,0)"
       id="path2134"
       style="color:#000000;fill:#ffd300;fill-opacity:0.147157;fill-rule:evenodd;stroke:#000000;stroke-width:0.839911;stroke-linecap:butt;stroke-linejoin:miter;stroke-miterlimit:4;stroke-dashoffset:0;stroke-opacity:1;marker:none;marker-start:none;marker-mid:none;marker-end:none"
       cx="129.12505"
       cy="-36.548973"
       rx="32.588856"
       ry="6.6322904" />
  </g>
</svg>
