<?xml version="1.0" encoding="UTF-8" standalone="no"?>
<svg
   xmlns:dc="http://purl.org/dc/elements/1.1/"
   xmlns:cc="http://creativecommons.org/ns#"
   xmlns:rdf="http://www.w3.org/1999/02/22-rdf-syntax-ns#"
   xmlns:svg="http://www.w3.org/2000/svg"
   xmlns="http://www.w3.org/2000/svg"
   xmlns:sodipodi="http://sodipodi.sourceforge.net/DTD/sodipodi-0.dtd"
   xmlns:inkscape="http://www.inkscape.org/namespaces/inkscape"
   version="1.1"
   sodipodi:docname="shapes-f20.svg"
   inkscape:version="1.0beta1 (a4ee55bc41, 2019-11-15)"
   sodipodi:version="0.32"
   viewBox="0 0 300 118"
   id="svg2943"
   height="118"
   width="300">
  <defs
     id="defs3" />
  <sodipodi:namedview
     inkscape:lockguides="true"
     id="base"
     pagecolor="#ffffff"
     bordercolor="#666666"
     borderopacity="1.0"
     inkscape:pageopacity="0.0"
     inkscape:pageshadow="2"
     inkscape:zoom="1.4"
     inkscape:cx="160"
     inkscape:cy="59"
     inkscape:document-units="px"
     inkscape:current-layer="layer1"
     inkscape:document-rotation="0"
     showgrid="false"
     units="px"
     showguides="true"
     inkscape:guide-bbox="true"
     inkscape:window-width="1866"
     inkscape:window-height="1016"
     inkscape:window-x="54"
     inkscape:window-y="27"
     inkscape:window-maximized="1" />
  <metadata
     id="metadata4">
    <rdf:RDF>
      <cc:Work
         rdf:about="">
        <dc:format>image/svg+xml</dc:format>
        <dc:type
           rdf:resource="http://purl.org/dc/dcmitype/StillImage" />
        <dc:title />
      </cc:Work>
    </rdf:RDF>
  </metadata>
  <g
     id="layer1"
     inkscape:groupmode="layer"
     inkscape:label="Layer 1">
    <path
       style="color:#000000;display:inline;overflow:visible;visibility:visible;fill:none;stroke:#d9d9d9;stroke-width:0.456531;stroke-linecap:butt;stroke-linejoin:miter;stroke-miterlimit:4;stroke-dasharray:none;stroke-dashoffset:0;stroke-opacity:1;marker:none"
       inkscape:connector-curvature="0"
       id="path1599"
       d="m 24.143798,104.23861 c 2.779121,3.75643 6.408689,5.1731 11.381578,2.8602 C 62.348492,94.623395 -21.463811,47.337733 5.7349968,35.590407 32.933786,23.843063 31.000057,123.43961 57.971059,111.83276 84.942084,100.22594 1.5040728,44.524457 29.193976,34.230063 56.883862,23.935649 36.210128,107.7116 63.928505,97.913907 91.64687,88.116421 19.939055,26.649568 47.828472,16.529642 75.717892,6.4096985 51.975109,110.68104 80.225013,102.37428 108.47494,94.067542 28.569489,21.179001 56.719217,12.681617 84.868926,4.1842509 66.711515,109.0715 94.94982,101.30452 123.18807,93.537534 43.514977,14.481529 72.388044,7.7396592 101.26109,0.99779617 66.394119,95.265948 94.87421,88.986794 123.35428,82.707636 58.155565,14.999822 87.420899,10.411486 116.6863,5.8231467 78.668352,91.061756 107.92183,87.695013 137.1753,84.328073 78.179145,8.6010378 107.36772,5.3291868 136.55621,2.0573381 98.09491,93.906723 127.29964,90.888821 156.50444,87.870925 101.70647,3.6763365 131.27168,2.4914158 160.83711,1.3064953 103.86833,90.272578 133.44909,88.745841 163.02971,87.219315 117.09919,8.1423039 146.49339,8.0793578 175.88756,8.0164011 129.79957,82.244351 158.95725,82.754561 188.11514,83.264765 129.23924,-0.89257296 158.77305,0.23936071 188.30666,1.3712924 136.9722,86.896885 166.42998,88.924101 195.88796,90.951527 153.71692,3.499499 183.0625,5.5440915 212.40788,7.5886848 150.75902,80.550277 180.18218,83.767091 209.60553,86.984109 170.42254,-0.81188918 199.43549,4.0736179 228.44845,8.9591328 159.22051,84.718874 188.1768,90.33055 c 28.9563,5.611673 -8.62943,-92.5788057 20.19921,-86.9798804 28.82886,5.598919 -26.56111,80.9687104 1.97038,88.1035124 28.5315,7.134594 -3.75405,-85.3302419 24.35812,-77.75119 28.11196,7.579044 -47.68147,69.624484 -19.58234,77.631907 28.09912,8.007618 -0.47163,-82.4361308 27.50659,-73.700049 27.97804,8.736063 -43.79913,67.27542 -15.81039,76.555467 27.98892,9.280043 8.76892,-75.893631 36.25653,-65.588412 27.48781,10.305197 -54.75747,72.597795 -27.2005,82.663445 27.55678,10.06584 15.51364,-93.319774 42.68128,-82.338686 27.16763,10.981081 -49.91266,72.714316 -23.29288,84.610116 26.62,11.89559 12.88753,-95.813999 39.39084,-82.869203 26.09443,12.745139 -57.21215,71.789023 -34.91202,86.787073" />
    <path
       inkscape:connector-curvature="0"
       style="color:#000000;font-family:'Liberation Sans',Arial,sans-serif;display:inline;overflow:visible;visibility:visible;opacity:1;fill:none;fill-opacity:1;fill-rule:evenodd;stroke:#000000;stroke-width:0.697413;stroke-linecap:butt;stroke-linejoin:miter;stroke-miterlimit:4;stroke-dasharray:none;stroke-dashoffset:0;stroke-opacity:1;marker:none;marker-start:none;marker-mid:none;marker-end:none"
       d="m 264.96409,83.496216 c -1.34113,1.653068 -2.55294,2.862688 -3.28386,2.411718 -2.18634,-1.348884 0.22208,-16.612844 -1.97591,-17.90039 -2.42738,-1.422053 -4.18409,8.416635 -6.62569,7.032253 -2.21061,-1.253673 6.08405,-5.639593 3.80689,-6.799882 -2.51486,-1.281232 -9.65955,3.371813 -12.2048,2.179598 -2.30504,-1.079897 -1.55614,-8.757558 -3.86511,-9.851208 -2.54979,-1.207757 -2.20521,9.376398 -4.8237,8.281851 -2.3713,-0.990949 4.39843,-10.996663 2.03413,-11.943333 -2.61092,-1.045445 -13.50771,9.010341 -16.12789,8.020346 -2.37262,-0.89642 7.09104,-7.914886 4.67851,-8.746826 -2.66439,-0.918737 -9.48794,9.124759 -12.17582,8.252864 -2.43398,-0.78957 4.93427,-14.378454 2.49919,-15.110865 -2.6893,-0.808815 -7.03279,7.278062 -9.7641,6.567399 -2.47318,-0.643508 3.2408,-6.979719 0.75569,-7.555422 -2.74447,-0.635745 -6.5712,9.523402 -9.29905,8.83403 -2.47,-0.624226 -4.49518,-8.595314 -7.00327,-9.037443 -2.76984,-0.488274 -1.99433,7.50584 -4.76572,6.945181 -2.50977,-0.507688 1.83525,-13.86112 -0.69746,-14.239064 -2.79673,-0.41739 -4.54293,10.985805 -7.32288,10.577591 -2.51743,-0.369648 -0.7895,-7.276244 -3.34183,-7.584484 -2.81873,-0.340403 -9.70267,7.311808 -12.49543,7.032352 -2.52905,-0.253052 5.38685,-7.578377 2.81854,-7.729782 -2.83599,-0.167188 -10.45272,9.700298 -13.28009,9.531459 -2.56007,-0.152893 1.92451,-11.23695 -0.63923,-11.275019 -2.83107,-0.04204 -5.58445,9.834407 -8.39819,9.851122 -2.54768,0.01512 -2.8341,-13.469912 -5.37595,-13.367296 -2.80661,0.113333 0.74189,10.865006 -2.09211,11.071594 -2.56644,0.187095 -3.01491,-5.048744 -5.55039,-4.852891 -2.79997,0.216267 -0.32384,4.905159 -3.10942,5.230673 -2.5224,0.294757 -7.36003,-8.885057 -9.88004,-8.543444 -2.78301,0.377256 -1.75248,14.215856 -4.56233,14.64589 -2.54449,0.38942 0.41483,-12.093492 -2.09229,-11.594658 -2.76862,0.550876 -1.58627,9.468259 -4.32984,10.054523 -2.48434,0.530885 -4.24291,-12.040279 -6.71269,-11.42032 -2.72744,0.684652 2.42077,13.787567 -0.29057,14.500601 C 97.01617,57.610625 91.62455,46.072527 89.184375,46.794172 86.489636,47.591126 91.08611,57.63542 88.370721,58.388857 85.911865,59.071112 79.18555,52.881445 76.77608,53.71029 c -2.660881,0.915327 4.315532,10.974809 1.656369,11.943398 -2.407957,0.877101 -6.482464,-13.455835 -8.863079,-12.553639 -2.628994,0.99633 0.473817,16.217456 -2.150385,17.290212 -2.376287,0.971613 -8.078646,-15.493317 -10.403226,-14.442394 -2.567104,1.16057 7.192921,13.038675 4.620411,14.23897 -2.329455,1.08711 -12.59974,-6.870673 -14.878345,-5.695541 -2.51632,1.297776 8.307768,8.964989 5.782791,10.228886 -2.286427,1.144685 -8.929132,-11.402321 -11.129695,-10.141698 -2.430151,1.392121 1.060157,12.13158 -1.39485,13.483528 -2.223065,1.224171 -5.033603,-5.064026 -7.235755,-3.777645 -2.431914,1.420558 3.894703,7.476181 1.482022,8.979187 -1.444692,0.899973 -5.000823,-2.644129 -7.904134,-4.823699"
       id="rect1295"
       sodipodi:nodetypes="ccccccccccccccccccccccccccccccccccccccccccccccccccc" />
    <path
       transform="matrix(0.00947475,0.00947476,-0.00947475,0.00947476,182.65554,22.435032)"
       d="m 586.43223,1426.219 c -43.66694,223.1135 -607.308775,-342.5011 -726.13506,-152.5981 -112.60149,179.9548 553.02972,440.4026 382.1269,578.6439 -180.350604,145.8836 -273.957966,-407.7133 -456.44776,-305.8371 -172.92994,96.5395 -11.43599,801.2237 -215.59397,792.7725 -215.44417,-8.9183 -83.97998,-767.0057 -303.4365,-842.7383 -207.96014,-71.7653 -426.08804,622.4865 -600.81224,515.3607 -184.3833,-113.0478 354.61065,-587.5532 223.5367,-773.3203 -124.2075,-176.0356 -522.9092,318.6274 -603.8115,115.2102 -85.3747,-214.6625 303.1438,-189.7739 324.7705,-409.71964 20.4939,-208.42376 -506.8513,-141.74332 -455.7283,-344.72913 53.9492,-214.20722 691.1167,193.59139 847.25298,59.02145 147.95697,-127.52041 -367.80518,-470.08179 -183.98538,-585.997656 193.98177,-122.32389 341.58624,357.445236 556.78661,280.717456 203.92695,-72.70835 -292.40961,-729.01842 -70.12153,-723.9663 234.57653,5.33142 103.61406,441.758264 304.15778,552.87443 190.0381,105.29526 296.288645,-451.98381 460.077288,-332.45316 172.843152,126.138498 -122.179484,713.87182 42.572992,871.44228 156.1218,149.31602 631.61015,-214.95331 669.21746,-24.66077 39.6863,200.81222 -672.2694,93.02445 -650.5216,316.17894 20.60853,211.4643 497.47406,202.3732 456.09463,413.7986 z"
       inkscape:randomized="0.14"
       inkscape:rounded="0.35"
       inkscape:flatsided="false"
       sodipodi:arg2="0.67945593"
       sodipodi:arg1="0.32910642"
       sodipodi:r2="717.9032"
       sodipodi:r1="1251.4492"
       sodipodi:cy="945.83423"
       sodipodi:cx="-564.31024"
       sodipodi:sides="10"
       id="path2853"
       sodipodi:type="star" />
    <path
       transform="matrix(-0.02130615,0,0,-0.02402213,190.56967,44.45935)"
       d="m -461.01498,1115.3291 c -89.53767,41.7375 75.07078,313.4832 -16.99368,344.6233 -98.55072,33.334 -21.14623,-293.7718 -140.04376,-305.4283 -111.07211,-10.8893 -111.45065,326.296 -202.37556,279.9658 -97.33088,-49.5942 83.58718,-124.567 -8.1317,-203.0556 -85.68227,-73.3227 -217.38982,121.0007 -280.89132,31.0315 -67.9754,-96.3079 330.65304,-149.5298 269.93923,-249.9841 -56.71785,-93.8427 -231.23103,102.1816 -214.25013,-10.4625 18.1771,-120.58028 209.33226,-120.37425 257.35388,-210.48386 44.86102,-84.17891 -352.93008,-87.95676 -262.91148,-151.09584 96.36072,-67.58745 261.54722,92.71491 343.88087,25.88336 76.91474,-62.43294 -65.71691,-224.30388 28.27362,-248.04628 100.61249,-25.41514 -3.67347,213.88709 114.03828,241.53958 109.96438,25.83251 122.88359,-255.00632 205.82117,-199.99213 88.78082,58.89014 -72.68523,131.53151 16.17801,214.5668 83.01458,77.57021 253.339572,-68.3484 311.901111,11.5275 62.687403,85.50343 -314.707931,4.04964 -297.712031,106.41981 15.87729,95.63252 215.93985,192.38574 225.52673,293.11066 10.26231,107.8214 -238.60943,-200.82745 -268.63385,-95.33222 -28.04832,98.55192 356.812643,219.96252 305.416555,308.30762 -55.017125,94.5693 -290.540025,-227.7733 -386.385945,-183.0951 z"
       inkscape:randomized="0.2"
       inkscape:rounded="0.41"
       inkscape:flatsided="false"
       sodipodi:arg2="1.3344848"
       sodipodi:arg1="1.0714496"
       sodipodi:r2="523.09772"
       sodipodi:r1="288.60358"
       sodipodi:cy="945.83423"
       sodipodi:cx="-564.31024"
       sodipodi:sides="10"
       id="path1638"
       sodipodi:type="star" />
    <path
       transform="matrix(0.00337382,0.00584363,-0.00584363,0.00337383,129.13985,86.206857)"
       d="M 1192.8688,-27.843698 C 1675.7913,717.71691 3670.83,-107.03224 3770.3326,696.85954 3881.1484,1592.1513 1509.8829,832.05889 1356.5239,1780.419 1218.8213,2631.9614 3729.1797,2972.2635 3132.6328,3522.5978 2468.2604,4135.5035 1257.0666,1439.7789 647.27506,2181.9603 99.736942,2848.3727 1931.3943,4335.9732 1136.0147,4548.5008 250.20293,4785.1921 808.91559,3677.0843 -76.101097,3843.6207 -870.76674,3993.1554 -1082.0541,6375.0915 -1868.186,6042.6562 c -875.5127,-370.2322 215.8163,-2086.8972 -630.4076,-2610.746 -759.8332,-470.3693 -646.3981,1051.6631 -1051.3543,224.4523 -450.9984,-921.2622 1293.2811,-948.127 719.9027,-1705.4316 -514.8424,-679.9916 -2808.3383,351.2187 -2892.303,-503.15 -93.5112,-951.50779 2411.1934,176.5538 2464.1751,-721.76443 47.5727,-806.609219 -2506.3977,-1245.26979 -1870.9221,-1908.73907 707.7272,-738.9037 1743.644,498.17654 2577.4772,-27.5567 748.7074,-472.0613 -1189.9532,-1457.1132 -315.0606,-1613.5426 974.3653,-174.2149 1798.9144,855.0172 2800.748608,879.2065 899.557262,21.7198 -605.383598,-1743.6737 274.021632,-1624.437 979.39096,132.7935 -545.19149,2655.78962 315.58949,2977.19923 C 1296.5853,-303.25616 1973.6028,-2503.9856 2435.6134,-1768.5288 2950.1531,-949.4528 655.03939,-858.17226 1192.8688,-27.843698 Z"
       inkscape:randomized="0.14"
       inkscape:rounded="0.35"
       inkscape:flatsided="false"
       sodipodi:arg2="-0.12863391"
       sodipodi:arg1="-0.33254745"
       sodipodi:r2="4673.7515"
       sodipodi:r1="2299.585"
       sodipodi:cy="945.83423"
       sodipodi:cx="-564.31024"
       sodipodi:sides="10"
       id="path2855"
       sodipodi:type="star" />
    <path
       transform="matrix(-0.00801579,0,0,-0.00605458,71.62364,38.771458)"
       d="M -588.58303,-1237.4689 C -121.15492,-1260.9332 -648.76421,-200.55439 -213.4978,19.755764 165.26842,211.46833 350.16158,-417.03523 661.63312,-121.28353 1019.5666,218.58516 196.92272,90.889358 265.60457,553.29115 325.37111,955.6704 1598.6463,735.71092 1492.4835,1125.4341 1370.4846,1573.2919 434.90332,1408.3913 248.33488,1842.9019 c -162.350729,378.1085 678.15137,506.9432 313.48285,713.6348 -419.06577,237.5235 -421.32656,-855.0135 -908.2988,-886.5808 -423.76032,-27.4697 -847.10643,1206.8339 -1171.14693,947.696 -372.3773,-297.7933 553.10748,-986.907 143.9481,-1326.2952 -356.0481,-295.33352 -1063.3881,758.9531 -1074.5844,341.3816 -12.8664,-479.8603 1041.5073,-607.492 1031.8408,-1137.54586 -8.4117,-461.249666 -1145.2705,-356.26401 -833.0396,-656.03303 358.8062,-344.48528 684.5747,339.48668 1117.7455,40.25226 376.94267,-260.39199 136.38144,-1096.46207 543.13457,-1116.88057 z"
       inkscape:randomized="0.14"
       inkscape:rounded="0.4"
       inkscape:flatsided="false"
       sodipodi:arg2="-1.0812633"
       sodipodi:arg1="-1.6417338"
       sodipodi:r2="987.2879"
       sodipodi:r1="1962.3131"
       sodipodi:cy="945.83423"
       sodipodi:cx="-564.31024"
       sodipodi:sides="7"
       id="path2856"
       sodipodi:type="star" />
    <path
       transform="matrix(-0.00590918,0,0,-0.00446339,64.64975,86.720296)"
       d="m -624.46794,-581.42936 c 325.22226,56.05548 9.03859,753.22357 309.98212,918.22601 C -80.121454,465.29481 266.81929,-202.23998 445.73163,-43.137672 675.47011,161.16306 -20.106794,474.08963 128.6621,758.93731 244.51814,980.76678 1023.9948,714.25362 982.12458,952.96109 928.35974,1259.4815 282.8071,1023.2805 131.1532,1336.6483 c -118.10279,244.04 261.11175,693.6408 5.93231,752.211 -327.67184,75.2091 -268.13171,-428.5418 -571.07058,-381.8744 -235.91826,36.3429 -425.65853,907.5942 -636.89923,739.0497 -271.2507,-216.4252 198.88539,-667.1219 -80.9389,-853.5712 -217.9173,-145.2003 -642.0855,-86.6406 -720.6587,-317.7945 -100.8946,-296.82103 544.9527,-125.8811 616.9674,-441.64347 56.0825,-245.90478 -582.0787,-516.87966 -375.4476,-681.65006 265.3316,-211.579031 294.7135,291.45014 603.5402,157.10957 240.50345,-104.61977 149.68217,-933.56837 402.95396,-889.9143 z"
       inkscape:randomized="0.14"
       inkscape:rounded="0.4"
       inkscape:flatsided="false"
       sodipodi:arg2="-1.0962105"
       sodipodi:arg1="-1.6706296"
       sodipodi:r2="866.36334"
       sodipodi:r1="1395.4882"
       sodipodi:cy="945.83423"
       sodipodi:cx="-564.31024"
       sodipodi:sides="7"
       id="path2857"
       sodipodi:type="star" />
    <path
       style="stroke-width:0.0110483"
       transform="matrix(0.93750001,0,0,0.93750132,221.34887,74.908067)"
       d="m 7.5344266,13.78582 c -0.9759689,2.77576 -5.286673,0.777119 -7.29875201,3.109095 -2.01207899,2.331976 -0.60534955,3.84127 -3.43946499,5.19303 -2.8341155,1.35176 -1.0092015,-3.765778 -3.9601869,-4.27008 -2.9509857,-0.504303 -4.6783897,7.209203 -7.4479977,6.245902 -2.769608,-0.963301 1.407634,-6.671153 -0.216247,-9.445747 -1.623882,-2.774593 -3.512654,1.534316 -3.513831,-1.426945 -0.0012,-2.96126 4.346847,-2.559884 5.000548,-5.4526327 0.653702,-2.8927488 -5.133195,-5.0282837 -2.981524,-7.13796428 2.151671,-2.10968062 3.564672,2.78161468 6.355584,2.38541928 2.7909123,-0.3961953 1.4113803,-8.7287503 4.1531068,-8.090848 2.7417264,0.6379022 1.7223051,5.5752878 4.4164196,6.9467568 C 1.296196,3.213275 5.722468,0.42100776 7.2516734,2.8962379 8.7808788,5.371468 1.1522892,6.1898849 1.3499018,9.3795113 1.5475144,12.569138 8.5103955,11.010061 7.5344266,13.78582 Z"
       inkscape:randomized="0.14"
       inkscape:rounded="0.4"
       inkscape:flatsided="false"
       sodipodi:arg2="0.77790537"
       sodipodi:arg1="0.32910642"
       sodipodi:r2="7.9316006"
       sodipodi:r1="13.82637"
       sodipodi:cy="10.449848"
       sodipodi:cx="-6.2346616"
       sodipodi:sides="7"
       id="path2854"
       sodipodi:type="star" />
    <path
       style="stroke-width:0.0110483"
       sodipodi:type="star"
       id="path1295"
       sodipodi:sides="7"
       sodipodi:cx="-6.2346616"
       sodipodi:cy="10.449848"
       sodipodi:r1="3.228641"
       sodipodi:r2="7.9316006"
       sodipodi:arg1="0.32929262"
       sodipodi:arg2="0.77809157"
       inkscape:flatsided="false"
       inkscape:rounded="0.4"
       inkscape:randomized="0.14"
       d="m -2.0772442,11.910675 c -0.3186739,1.939955 3.1276841,2.274529 1.8426003,3.831481 -1.2850838,1.556952 -4.1150266,-2.003685 -5.9360015,-1.245048 -1.8209749,0.758637 0.9355096,4.519127 -1.0717821,4.492245 -2.0072917,-0.02688 0.9361112,-4.310494 -0.8073768,-5.501714 -1.7434881,-1.19122 -3.0454707,3.682829 -3.8640997,1.630657 -0.818629,-2.052172 2.2054669,-2.064677 1.884311,-4.199378 -0.321156,-2.1346999 -3.888681,-0.228014 -3.361891,-2.3396449 0.526791,-2.1116306 3.3934758,0.6987854 5.0354373,-0.4816447 1.6419615,-1.1804301 -2.8928473,-4.444005 -0.9198635,-5.2841122 1.9729836,-0.8401072 1.0145241,5.2884188 3.1364447,5.3948127 2.1219207,0.1063938 2.8011007,-4.9676298 4.5780939,-4.0555687 1.77699331,0.9120612 -3.6333406,1.7284745 -2.7848827,3.7338759 0.8484578,2.0054014 5.9768816,-0.1246412 5.8201666,2.0386937 -0.156715,2.1633352 -3.2324827,0.045389 -3.5511565,1.9853452 z"
       transform="matrix(0.93750001,0,0,0.93750132,161.26568,90.960811)" />
  </g>
</svg>
