<?xml version="1.0" encoding="UTF-8" standalone="no"?>
<svg
   xmlns:dc="http://purl.org/dc/elements/1.1/"
   xmlns:cc="http://creativecommons.org/ns#"
   xmlns:rdf="http://www.w3.org/1999/02/22-rdf-syntax-ns#"
   xmlns:svg="http://www.w3.org/2000/svg"
   xmlns="http://www.w3.org/2000/svg"
   xmlns:sodipodi="http://sodipodi.sourceforge.net/DTD/sodipodi-0.dtd"
   xmlns:inkscape="http://www.inkscape.org/namespaces/inkscape"
   version="1.1"
   inkscape:output_extension="org.inkscape.output.svg.inkscape"
   sodipodi:docname="interpolate-f08.svg"
   inkscape:version="1.0beta1 (08a003b, 2019-11-10)"
   sodipodi:version="0.32"
   viewBox="0 0 300 41"
   id="svg15699"
   height="41"
   width="300">
  <defs
     id="defs15701" />
  <sodipodi:namedview
     inkscape:lockguides="true"
     id="base"
     pagecolor="#ffffff"
     bordercolor="#666666"
     borderopacity="1.0"
     inkscape:pageopacity="0.0"
     inkscape:pageshadow="2"
     inkscape:zoom="1.4"
     inkscape:cx="324.77314"
     inkscape:cy="-2.7978518"
     inkscape:document-units="px"
     inkscape:current-layer="svg15699"
     inkscape:document-rotation="0"
     showgrid="false"
     units="px"
     showguides="true"
     inkscape:guide-bbox="true"
     inkscape:window-width="1866"
     inkscape:window-height="1016"
     inkscape:window-x="54"
     inkscape:window-y="27"
     inkscape:window-maximized="1" />
  <metadata
     id="metadata15704">
    <rdf:RDF>
      <cc:Work
         rdf:about="">
        <dc:format>image/svg+xml</dc:format>
        <dc:type
           rdf:resource="http://purl.org/dc/dcmitype/StillImage" />
        <dc:title></dc:title>
      </cc:Work>
    </rdf:RDF>
  </metadata>
  <g
     id="layer1"
     inkscape:groupmode="layer"
     inkscape:label="Layer 1">
    <g
       transform="translate(10,0.0113778)"
       id="g2947">
      <g
         id="g2693"
         transform="matrix(0.5218716,0,0,0.5218716,-7.8861828,-265.1763)">
        <path
           inkscape:connector-curvature="0"
           style="opacity:1;fill:#00ccff;fill-opacity:1;stroke:#2e75ac;stroke-width:7.757;stroke-linejoin:round;stroke-miterlimit:4;stroke-opacity:1"
           id="path2695"
           d="m 53.989847,511.98226 c 19.39,0 35,15.61 35,35 0,5.87594 -1.433513,11.40475 -3.971321,16.25721 -5.836702,11.16018 -17.514616,18.7428 -31.028679,18.7428 -11.96549,0 -22.491529,-5.9444 -28.798128,-15.05323 -3.913204,-5.65196 -6.201872,-12.52227 -6.201872,-19.94678 0,-19.39 15.61,-35 35,-35 0,0 0,0 0,0" />
        <path
           inkscape:connector-curvature="0"
           style="opacity:1;fill:#00ccff;fill-opacity:1;stroke:#2e75ac;stroke-width:7.757;stroke-linejoin:round;stroke-miterlimit:4;stroke-opacity:1"
           id="path2697"
           d="m 110.6225,513.98226 c 16.62,0 32.34695,17.13511 33.82496,36.11993 0.67929,6.12339 -0.0537,11.65557 -2.22895,15.81483 -5.00289,9.56586 -13.66042,13.90189 -23.94594,11.82514 -9.05811,-1.91684 -16.92852,-8.85509 -22.334178,-16.66266 -3.354175,-4.84454 -6.523266,-10.73337 -8.098956,-17.09724 -2.959021,-16.62 6.163066,-30 22.783064,-30 0,0 0,0 0,0" />
        <path
           inkscape:connector-curvature="0"
           style="opacity:1;fill:#00ccff;fill-opacity:1;stroke:#2e75ac;stroke-width:7.757;stroke-linejoin:round;stroke-miterlimit:4;stroke-opacity:1"
           id="path2699"
           d="m 167.25516,515.98226 c 13.85,0 29.69389,18.66022 32.64991,37.23987 1.35859,6.37084 1.32615,11.90638 -0.48657,15.37243 -4.16907,7.97155 -9.80624,9.06098 -16.86321,4.9075 -6.15072,-3.83369 -11.36551,-11.7658 -15.87022,-18.2721 -2.79515,-4.03712 -6.84467,-8.94448 -9.99605,-14.2477 -5.91804,-13.85 -3.28386,-25 10.56614,-25 0,0 0,0 0,0" />
        <path
           inkscape:connector-curvature="0"
           style="opacity:1;fill:#00ccff;fill-opacity:1;stroke:#2e75ac;stroke-width:7.757;stroke-linejoin:round;stroke-miterlimit:4;stroke-opacity:1"
           id="path2701"
           d="m 223.88781,517.98226 c 11.08,0 27.04083,20.18534 31.47488,38.3598 2.03788,6.61829 2.70597,12.1572 1.2558,14.93004 -3.33526,6.37725 -5.95205,4.22008 -9.78048,-2.01015 -3.24334,-5.75053 -5.8025,-14.67649 -9.40627,-19.88153 -2.23612,-3.22969 -7.16606,-7.15558 -11.89313,-11.39816 -8.87706,-11.08 -12.7308,-20 -1.6508,-20 0,0 0,0 0,0" />
        <path
           inkscape:connector-curvature="0"
           style="opacity:1;fill:#00ccff;fill-opacity:1;stroke:#2e75ac;stroke-width:7.757;stroke-linejoin:round;stroke-miterlimit:4;stroke-opacity:1"
           id="path2703"
           d="m 280.52047,519.98226 c 8.31,0 24.38777,21.71045 30.29983,39.47974 2.71717,6.86574 4.0858,12.40802 2.99817,14.48764 -2.50144,4.78294 -2.09786,-0.62082 -2.69774,-8.9278 -0.33596,-7.66737 -0.23949,-17.58718 -2.94232,-21.49096 -1.67709,-2.42227 -7.48745,-5.36669 -13.79021,-8.54862 -11.83608,-8.31 -22.17773,-15 -13.86773,-15 0,0 0,0 0,0" />
        <path
           inkscape:connector-curvature="0"
           style="opacity:1;fill:#00ccff;fill-opacity:1;stroke:#2e75ac;stroke-width:7.757;stroke-linejoin:round;stroke-miterlimit:4;stroke-opacity:1"
           id="path2705"
           d="m 337.15312,521.98226 c 5.54,0 21.73472,23.23556 29.12479,40.59967 3.39647,7.11319 5.46564,12.65884 4.74055,14.04526 -1.66763,3.18862 1.75633,-5.46173 4.38499,-15.84545 2.57143,-9.58423 5.32352,-20.49788 3.52163,-23.1004 -1.11805,-1.61485 -7.80884,-3.57779 -15.68729,-5.69908 -14.7951,-5.54 -31.62467,-10 -26.08467,-10 0,0 0,0 0,0" />
        <path
           inkscape:connector-curvature="0"
           style="opacity:1;fill:#00ccff;fill-opacity:1;stroke:#2e75ac;stroke-width:7.757;stroke-linejoin:round;stroke-miterlimit:4;stroke-opacity:1"
           id="path2707"
           d="m 393.78578,523.98226 c 2.77,0 19.08166,24.76067 27.94974,41.7196 4.07577,7.36064 6.84547,12.90966 6.48292,13.60287 -0.83381,1.59431 5.61053,-10.30264 11.46773,-22.7631 5.47881,-11.50107 10.88653,-23.40857 9.98559,-24.70983 -0.55903,-0.80742 -8.13024,-1.7889 -17.58438,-2.84954 -17.75413,-2.77 -41.0716,-5 -38.3016,-5 0,0 0,0 0,0" />
        <path
           inkscape:connector-curvature="0"
           style="opacity:1;fill:#00ccff;fill-opacity:1;stroke:#2e75ac;stroke-width:7.757;stroke-linejoin:round;stroke-miterlimit:4;stroke-opacity:1"
           id="path2709"
           d="m 450.41843,525.98226 c 0,0 16.42861,26.28578 26.77471,42.83954 4.75505,7.60809 8.22529,13.16047 8.22529,13.16047 0,0 9.46471,-15.14354 18.55046,-29.68075 8.3862,-13.41791 16.44954,-26.31926 16.44954,-26.31926 0,0 -8.45163,0 -19.48146,0 -20.71315,0 -50.51854,0 -50.51854,0 0,0 0,0 0,0" />
      </g>
    </g>
  </g>
</svg>
