<?xml version="1.0" encoding="UTF-8" standalone="no"?>
<svg
   xmlns:dc="http://purl.org/dc/elements/1.1/"
   xmlns:cc="http://creativecommons.org/ns#"
   xmlns:rdf="http://www.w3.org/1999/02/22-rdf-syntax-ns#"
   xmlns:svg="http://www.w3.org/2000/svg"
   xmlns="http://www.w3.org/2000/svg"
   xmlns:sodipodi="http://sodipodi.sourceforge.net/DTD/sodipodi-0.dtd"
   xmlns:inkscape="http://www.inkscape.org/namespaces/inkscape"
   sodipodi:docname="elements-f09.svg"
   inkscape:version="1.0beta1 (a4ee55bc41, 2019-11-15)"
   sodipodi:version="0.32"
   id="svg1831"
   viewBox="0 0 300 100"
   height="100"
   width="300"
   version="1.1">
  <defs
     id="defs3" />
  <sodipodi:namedview
     inkscape:window-maximized="1"
     inkscape:window-y="0"
     inkscape:window-x="1920"
     inkscape:window-height="1163"
     inkscape:window-width="1920"
     inkscape:guide-bbox="true"
     showguides="true"
     units="px"
     showgrid="false"
     inkscape:document-rotation="0"
     inkscape:current-layer="layer1"
     inkscape:document-units="px"
     inkscape:cy="50"
     inkscape:cx="160"
     inkscape:zoom="1.4"
     inkscape:pageshadow="2"
     inkscape:pageopacity="0.0"
     borderopacity="1.0"
     bordercolor="#666666"
     pagecolor="#ffffff"
     id="base"
     inkscape:lockguides="true" />
  <metadata
     id="metadata4">
    <rdf:RDF>
      <cc:Work
         rdf:about="">
        <dc:format>image/svg+xml</dc:format>
        <dc:type
           rdf:resource="http://purl.org/dc/dcmitype/StillImage" />
        <dc:title />
      </cc:Work>
    </rdf:RDF>
  </metadata>
  <g
     id="layer1"
     inkscape:groupmode="layer"
     inkscape:label="Layer 1">
    <rect
       y="0.24460776"
       x="0.24454901"
       height="99.125145"
       width="299.51089"
       id="rect2170"
       style="fill:none;fill-rule:evenodd;stroke:#000000;stroke-width:0.489098" />
    <path
       sodipodi:nodetypes="ccc"
       id="rect2562"
       d="M 149.92295,0.24459031 V 99.369771 Z"
       style="fill:none;fill-rule:evenodd;stroke:#000000;stroke-width:0.489098"
       inkscape:connector-curvature="0" />
    <path
       style="fill:#000000;fill-opacity:1;fill-rule:evenodd;stroke:none;stroke-width:0.808292"
       d="m 101.53746,19.102206 c 0,9.268197 -7.51337,16.781592 -16.781583,16.781592 -9.268207,0 -16.781575,-7.513395 -16.781575,-16.781592 0,-9.2681977 7.513368,-16.7815933 16.781575,-16.7815933 9.268213,0 16.781583,7.5133956 16.781583,16.7815933 z"
       id="path2564"
       inkscape:connector-curvature="0" />
    <path
       style="fill:#000000;fill-opacity:1;fill-rule:evenodd;stroke:none;stroke-width:1.6507"
       d="m 69.225596,34.739584 c 0,18.927592 -15.343863,34.271513 -34.271476,34.271513 -18.927614,0 -34.27147679,-15.343921 -34.27147679,-34.271513 0,-18.927592 15.34386279,-34.27151354 34.27147679,-34.27151354 18.927613,0 34.271476,15.34392154 34.271476,34.27151354 z"
       id="path2565"
       inkscape:connector-curvature="0" />
    <path
       style="fill:#000000;fill-opacity:1;fill-rule:evenodd;stroke:none;stroke-width:0.808292"
       d="m 273.21984,74.459657 c 0,9.268197 -7.51336,16.781592 -16.78157,16.781592 -9.26821,0 -16.78158,-7.513395 -16.78158,-16.781592 0,-9.268198 7.51337,-16.781593 16.78158,-16.781593 9.26821,0 16.78157,7.513395 16.78157,16.781593 z"
       id="path2566"
       inkscape:connector-curvature="0" />
    <path
       style="fill:#000000;fill-opacity:1;fill-rule:evenodd;stroke:none;stroke-width:1.6507"
       d="m 243.96292,40.8975 c 0,18.927592 -15.34387,34.271513 -34.27148,34.271513 -18.92761,0 -34.27148,-15.343921 -34.27148,-34.271513 0,-18.927592 15.34387,-34.2715131 34.27148,-34.2715131 18.92761,0 34.27148,15.3439211 34.27148,34.2715131 z"
       id="path2567"
       inkscape:connector-curvature="0" />
  </g>
</svg>
