<?xml version="1.0" encoding="UTF-8" standalone="no"?>
<svg
   xmlns:dc="http://purl.org/dc/elements/1.1/"
   xmlns:cc="http://creativecommons.org/ns#"
   xmlns:rdf="http://www.w3.org/1999/02/22-rdf-syntax-ns#"
   xmlns:svg="http://www.w3.org/2000/svg"
   xmlns="http://www.w3.org/2000/svg"
   xmlns:xlink="http://www.w3.org/1999/xlink"
   xmlns:sodipodi="http://sodipodi.sourceforge.net/DTD/sodipodi-0.dtd"
   xmlns:inkscape="http://www.inkscape.org/namespaces/inkscape"
   sodipodi:docname="basic-f11.svg"
   inkscape:version="1.0beta1 (459877fba3, 2019-11-14)"
   sodipodi:version="0.32"
   id="svg2928"
   viewBox="0 0 300 41"
   height="41"
   width="300"
   version="1.1">
  <defs
     id="defs3">
    <linearGradient
       id="linearGradient841">
      <stop
         id="stop842"
         offset="0.00000000"
         style="stop-color:#0082ab;stop-opacity:1;" />
      <stop
         id="stop1842"
         offset="0.34999999"
         style="stop-color:#0082ab;stop-opacity:0.5;" />
      <stop
         id="stop1843"
         offset="0.63000000"
         style="stop-color:#0082ab;stop-opacity:0.22;" />
      <stop
         id="stop843"
         offset="1.00000000"
         style="stop-color:#0082ab;stop-opacity:0;" />
    </linearGradient>
    <linearGradient
       gradientUnits="userSpaceOnUse"
       gradientTransform="matrix(1.3306705,0,0,0.801315,-1.0602442,-1632.758)"
       y2="2084.6602"
       x2="31.507034"
       y1="2043.7089"
       x1="28.860064"
       id="linearGradient1054"
       xlink:href="#linearGradient841" />
    <linearGradient
       gradientUnits="userSpaceOnUse"
       gradientTransform="matrix(1.3306705,0,0,0.801315,27.286236,-1632.758)"
       y2="2084.6602"
       x2="31.507034"
       y1="2043.7089"
       x1="28.860064"
       id="linearGradient1059"
       xlink:href="#linearGradient1056" />
    <linearGradient
       id="linearGradient1062">
      <stop
         id="stop1063"
         offset="0.00000000"
         style="stop-color:#65ab00;stop-opacity:0;" />
      <stop
         id="stop1064"
         offset="1.00000000"
         style="stop-color:#a79782;stop-opacity:1;" />
    </linearGradient>
    <radialGradient
       gradientUnits="userSpaceOnUse"
       gradientTransform="matrix(1.3306705,0,0,0.801315,62.719306,-1632.758)"
       fy="2062.9048"
       fx="31.576694"
       r="22.220636"
       cy="2062.9048"
       cx="31.576694"
       id="radialGradient1061"
       xlink:href="#linearGradient1062" />
    <radialGradient
       gradientUnits="userSpaceOnUse"
       gradientTransform="matrix(1.3306705,0,0,0.801315,94.609076,-1632.758)"
       fy="2062.9048"
       fx="31.576694"
       r="22.220636"
       cy="2062.9048"
       cx="31.576694"
       id="radialGradient1069"
       xlink:href="#linearGradient1070" />
    <linearGradient
       gradientUnits="userSpaceOnUse"
       y2="2028.3505"
       x2="56.19854"
       y1="2028.3505"
       x1="8.0307074"
       gradientTransform="matrix(1.308382,0,0,0.814966,137.12868,-1632.758)"
       id="linearGradient1074"
       xlink:href="#linearGradient1070" />
    <linearGradient
       id="linearGradient1070">
      <stop
         id="stop1071"
         offset="0.00000000"
         style="stop-color:#000000;stop-opacity:0.532296;" />
      <stop
         id="stop1072"
         offset="1.00000000"
         style="stop-color:#ffffff;stop-opacity:0;" />
    </linearGradient>
    <radialGradient
       gradientUnits="userSpaceOnUse"
       gradientTransform="matrix(1.308382,0,0,0.814966,137.12868,-1632.758)"
       fy="2034.277"
       fx="24.338306"
       r="24.696976"
       cy="2034.277"
       cx="24.338306"
       id="radialGradient1090"
       xlink:href="#linearGradient1070" />
    <linearGradient
       id="linearGradient1077">
      <stop
         id="stop1078"
         offset="0.00000000"
         style="stop-color:#ff2ee1;stop-opacity:0.529229;" />
      <stop
         id="stop1079"
         offset="1.00000000"
         style="stop-color:#000000;stop-opacity:0;" />
    </linearGradient>
    <radialGradient
       gradientUnits="userSpaceOnUse"
       gradientTransform="matrix(-1.308382,0,0,-0.814966,263.68468,1673.309)"
       fy="2014.8724"
       fx="39.346432"
       r="25.290115"
       cy="2014.8724"
       cx="39.346432"
       id="radialGradient1076"
       xlink:href="#linearGradient1077" />
    <linearGradient
       id="linearGradient1080">
      <stop
         id="stop1081"
         offset="0.00000000"
         style="stop-color:#7d4ad2;stop-opacity:0.532296;" />
      <stop
         id="stop1082"
         offset="1.00000000"
         style="stop-color:#ffffff;stop-opacity:0;" />
    </linearGradient>
    <radialGradient
       gradientUnits="userSpaceOnUse"
       gradientTransform="matrix(-1.308382,0,0,-0.814966,263.68468,1673.309)"
       fy="2012.5887"
       fx="48.497726"
       r="40.477055"
       cy="2012.5887"
       cx="48.497726"
       id="radialGradient1083"
       xlink:href="#linearGradient1080" />
    <linearGradient
       id="linearGradient1056">
      <stop
         id="stop1057"
         offset="0.00000000"
         style="stop-color:#0082ab;stop-opacity:0;" />
      <stop
         id="stop1058"
         offset="1.00000000"
         style="stop-color:#000000;stop-opacity:1;" />
    </linearGradient>
    <radialGradient
       gradientUnits="userSpaceOnUse"
       gradientTransform="matrix(1.308382,0,0,0.814966,215.08128,-1632.758)"
       fy="2014.6514"
       fx="39.611816"
       r="33.928719"
       cy="2014.6514"
       cx="39.611816"
       id="radialGradient1085"
       xlink:href="#linearGradient1056" />
    <linearGradient
       id="linearGradient1087">
      <stop
         id="stop1088"
         offset="0.00000000"
         style="stop-color:#f56f52;stop-opacity:0;" />
      <stop
         id="stop1089"
         offset="1.00000000"
         style="stop-color:#aba6a6;stop-opacity:0.243137;" />
    </linearGradient>
    <radialGradient
       gradientUnits="userSpaceOnUse"
       gradientTransform="matrix(1.308382,0,0,0.814966,215.08128,-1632.758)"
       fy="2028.3505"
       fx="32.114624"
       r="24.083916"
       cy="2028.3505"
       cx="32.114624"
       id="radialGradient1086"
       xlink:href="#linearGradient1087" />
  </defs>
  <sodipodi:namedview
     inkscape:window-maximized="0"
     inkscape:window-y="27"
     inkscape:window-x="54"
     inkscape:window-height="1053"
     inkscape:window-width="1866"
     inkscape:guide-bbox="true"
     showguides="true"
     units="px"
     showgrid="false"
     inkscape:document-rotation="0"
     inkscape:current-layer="layer1"
     inkscape:document-units="px"
     inkscape:cy="34.993116"
     inkscape:cx="261.22385"
     inkscape:zoom="1.4"
     inkscape:pageshadow="2"
     inkscape:pageopacity="0.0"
     borderopacity="1.0"
     bordercolor="#666666"
     pagecolor="#ffffff"
     id="base"
     inkscape:lockguides="true" />
  <metadata
     id="metadata4">
    <rdf:RDF>
      <cc:Work
         rdf:about="">
        <dc:format>image/svg+xml</dc:format>
        <dc:type
           rdf:resource="http://purl.org/dc/dcmitype/StillImage" />
        <dc:title />
      </cc:Work>
    </rdf:RDF>
  </metadata>
  <g
     id="layer1"
     inkscape:groupmode="layer"
     inkscape:label="Layer 1">
    <path
       style="font-size:12px;fill:url(#linearGradient1054);fill-opacity:1;fill-rule:evenodd;stroke:none;stroke-width:1.03261"
       d="m 70.526288,20.2779 c 0,9.8338 -13.238201,17.8057 -29.56835,17.8057 -16.330149,0 -29.568351,-7.9719 -29.568351,-17.8057 0,-9.8338 13.238202,-17.8057 29.568351,-17.8057 16.330149,0 29.56835,7.9719 29.56835,17.8057 z"
       id="path1053"
       inkscape:connector-curvature="0" />
    <path
       style="font-size:12px;fill:url(#linearGradient1059);fill-opacity:1;fill-rule:evenodd;stroke:none;stroke-width:1.03261"
       d="m 98.872768,20.2779 c 0,9.8338 -13.238201,17.8057 -29.56835,17.8057 -16.330149,0 -29.568351,-7.9719 -29.568351,-17.8057 0,-9.8338 13.238202,-17.8057 29.568351,-17.8057 16.330149,0 29.56835,7.9719 29.56835,17.8057 z"
       id="path1055"
       inkscape:connector-curvature="0" />
    <path
       style="font-size:12px;fill:url(#radialGradient1061);fill-opacity:1;fill-rule:evenodd;stroke:none;stroke-width:1.03261"
       d="m 134.30584,20.2779 c 0,9.8338 -13.2382,17.8057 -29.56835,17.8057 -16.330151,0 -29.568353,-7.9719 -29.568353,-17.8057 0,-9.8338 13.238202,-17.8057 29.568353,-17.8057 16.33015,0 29.56835,7.9719 29.56835,17.8057 z"
       id="path1060"
       inkscape:connector-curvature="0" />
    <path
       style="font-size:12px;fill:url(#radialGradient1069);fill-opacity:1;fill-rule:evenodd;stroke:none;stroke-width:1.03261"
       d="m 166.19561,20.2779 c 0,9.8338 -13.2382,17.8057 -29.56835,17.8057 -16.33015,0 -29.56835,-7.9719 -29.56835,-17.8057 0,-9.8338 13.2382,-17.8057 29.56835,-17.8057 16.33015,0 29.56835,7.9719 29.56835,17.8057 z"
       id="path1065"
       inkscape:connector-curvature="0" />
    <path
       style="font-size:12px;fill:url(#radialGradient1090);fill-opacity:1;fill-rule:evenodd;stroke:url(#linearGradient1074);stroke-width:3.76251;stroke-opacity:1"
       d="m 208.71521,20.2779 c 0,9.8338 -13.2382,17.8057 -29.56835,17.8057 -16.33015,0 -29.56835,-7.9719 -29.56835,-17.8057 0,-9.8338 13.2382,-17.8057 29.56835,-17.8057 16.33015,0 29.56835,7.9719 29.56835,17.8057 z"
       id="path1073"
       inkscape:connector-curvature="0" />
    <path
       style="font-size:12px;fill:url(#radialGradient1083);fill-opacity:1;fill-rule:evenodd;stroke:url(#radialGradient1076);stroke-width:3.76251;stroke-opacity:1"
       d="m 192.09814,20.2731 c 0,-9.8338 13.2382,-17.8057 29.56835,-17.8057 16.33015,0 29.56835,7.9719 29.56835,17.8057 0,9.8338 -13.2382,17.8057 -29.56835,17.8057 -16.33015,0 -29.56835,-7.9719 -29.56835,-17.8057 z"
       id="path1075"
       inkscape:connector-curvature="0" />
    <path
       style="font-size:12px;fill:url(#radialGradient1086);fill-opacity:1;fill-rule:evenodd;stroke:url(#radialGradient1085);stroke-width:3.76251;stroke-dasharray:3.76251, 3.76251;stroke-dashoffset:0;stroke-opacity:1"
       d="m 286.66781,20.2779 c 0,9.8338 -13.2382,17.8057 -29.56835,17.8057 -16.33015,0 -29.56835,-7.9719 -29.56835,-17.8057 0,-9.8338 13.2382,-17.8057 29.56835,-17.8057 16.33015,0 29.56835,7.9719 29.56835,17.8057 z"
       id="path1084"
       inkscape:connector-curvature="0" />
  </g>
</svg>
