<?xml version="1.0" encoding="UTF-8" standalone="no"?>
<!-- Created with Inkscape (http://www.inkscape.org/) -->
<svg
   xmlns:dc="http://purl.org/dc/elements/1.1/"
   xmlns:cc="http://web.resource.org/cc/"
   xmlns:rdf="http://www.w3.org/1999/02/22-rdf-syntax-ns#"
   xmlns:svg="http://www.w3.org/2000/svg"
   xmlns="http://www.w3.org/2000/svg"
   xmlns:sodipodi="http://sodipodi.sourceforge.net/DTD/sodipodi-0.dtd"
   xmlns:inkscape="http://www.inkscape.org/namespaces/inkscape"
   width="138.29462"
   height="118"
   id="svg2478"
   sodipodi:version="0.32"
   inkscape:version="0.44+devel"
   sodipodi:modified="true"
   version="1.0">
  <defs
     id="defs2480" />
  <sodipodi:namedview
     id="base"
     pagecolor="#ffffff"
     bordercolor="#666666"
     borderopacity="1.0"
     gridtolerance="10000"
     guidetolerance="10"
     objecttolerance="10"
     inkscape:pageopacity="0.0"
     inkscape:pageshadow="2"
     inkscape:zoom="0.35"
     inkscape:cx="375"
     inkscape:cy="520"
     inkscape:document-units="px"
     inkscape:current-layer="layer1"
     inkscape:window-width="640"
     inkscape:window-height="538"
     inkscape:window-x="3"
     inkscape:window-y="28" />
  <metadata
     id="metadata2483">
    <rdf:RDF>
      <cc:Work
         rdf:about="">
        <dc:format>image/svg+xml</dc:format>
        <dc:type
           rdf:resource="http://purl.org/dc/dcmitype/StillImage" />
      </cc:Work>
    </rdf:RDF>
  </metadata>
  <g
     inkscape:label="Layer 1"
     inkscape:groupmode="layer"
     id="layer1"
     transform="translate(-187.99555,-476.21933)">
    <path
       style="fill:#ff80ff;fill-opacity:1;fill-rule:evenodd;stroke:#000000;stroke-width:5;stroke-linecap:butt;stroke-linejoin:round;stroke-miterlimit:4;stroke-dasharray:none;stroke-opacity:1"
       d="M 321.22766,562.71933 L 247.35266,562.71933 C 253.18618,579.11043 268.65177,591.71933 284.29016,591.71933 C 299.92855,591.71933 315.39414,579.11043 321.22766,562.71933 z "
       id="path5613" />
    <path
       style="fill:#ffff00;fill-opacity:1;fill-rule:evenodd;stroke:#000000;stroke-width:5;stroke-linecap:butt;stroke-linejoin:round;stroke-miterlimit:4;stroke-dasharray:none;stroke-opacity:1"
       d="M 312.85266,508.71933 L 255.72766,508.71933 C 249.16437,522.82683 244.79016,538.74913 244.79016,549.21933 C 244.79016,553.90343 245.81892,558.40983 247.35266,562.71933 C 247.35266,562.71933 267.38391,571.71933 285.85266,571.71933 C 304.32141,571.71933 321.22766,562.71933 321.22766,562.71933 C 322.7614,558.40983 323.79016,553.90343 323.79016,549.21933 C 323.79016,538.74913 319.41595,522.82683 312.85266,508.71933 z "
       id="path5615"
       sodipodi:nodetypes="ccscscsc" />
    <path
       style="fill:#ff80ff;fill-opacity:1;fill-rule:evenodd;stroke:#000000;stroke-width:5;stroke-linecap:butt;stroke-linejoin:round;stroke-miterlimit:4;stroke-dasharray:none;stroke-opacity:1"
       d="M 284.29016,478.71933 C 273.73064,478.71933 263.26863,492.51033 255.72766,508.71933 C 255.72766,508.71933 270.57141,515.71933 284.85266,515.71933 C 299.13391,515.71933 312.85266,508.71933 312.85266,508.71933 C 305.31169,492.51033 294.84968,478.71933 284.29016,478.71933 z "
       id="path5617"
       sodipodi:nodetypes="ccscc" />
    <path
       sodipodi:type="star"
       style="opacity:1;fill:#00ffff;fill-opacity:1;stroke:#000000;stroke-width:1;stroke-linecap:round;stroke-linejoin:miter;stroke-miterlimit:4;stroke-dasharray:none;stroke-opacity:1"
       id="path6359"
       sodipodi:sides="5"
       sodipodi:cx="49"
       sodipodi:cy="1788"
       sodipodi:r1="10"
       sodipodi:r2="5"
       sodipodi:arg1="0.92729522"
       sodipodi:arg2="1.5556137"
       inkscape:flatsided="false"
       inkscape:rounded="0"
       inkscape:randomized="0"
       d="M 55,1796 L 49.07591,1792.9994 L 43.24565,1796.1785 L 44.268723,1789.6171 L 39.443616,1785.0546 L 46,1784 L 48.84818,1778.0012 L 51.877175,1783.9108 L 58.462554,1784.7658 L 53.778192,1789.4727 L 55,1796 z "
       transform="translate(149.05193,-1290.4592)" />
    <path
       sodipodi:type="star"
       style="opacity:1;fill:#00ffff;fill-opacity:1;stroke:#000000;stroke-width:1;stroke-linecap:round;stroke-linejoin:miter;stroke-miterlimit:4;stroke-dasharray:none;stroke-opacity:1"
       id="path6361"
       sodipodi:sides="5"
       sodipodi:cx="49"
       sodipodi:cy="1788"
       sodipodi:r1="10.687434"
       sodipodi:r2="5"
       sodipodi:arg1="1.1717916"
       sodipodi:arg2="1.8001101"
       inkscape:flatsided="false"
       inkscape:rounded="0"
       inkscape:randomized="0"
       d="M 53.152084,1797.8479 L 47.863453,1792.8691 L 40.91714,1794.992 L 44.017986,1788.4237 L 39.852434,1782.4734 L 47.057493,1783.3928 L 51.429354,1777.5923 L 52.781478,1784.7289 L 59.648989,1787.0943 L 53.279589,1790.5856 L 53.152084,1797.8479 z "
       transform="translate(216.84655,-1256.7818)" />
    <path
       sodipodi:type="star"
       style="opacity:1;fill:#00ffff;fill-opacity:1;stroke:#000000;stroke-width:1;stroke-linecap:round;stroke-linejoin:miter;stroke-miterlimit:4;stroke-dasharray:none;stroke-opacity:1"
       id="path6363"
       sodipodi:sides="5"
       sodipodi:cx="49"
       sodipodi:cy="1788"
       sodipodi:r1="10"
       sodipodi:r2="5"
       sodipodi:arg1="0.92729522"
       sodipodi:arg2="1.5556137"
       inkscape:flatsided="false"
       inkscape:rounded="0"
       inkscape:randomized="0"
       d="M 55,1796 L 49.07591,1792.9994 L 43.24565,1796.1785 L 44.268723,1789.6171 L 39.443616,1785.0546 L 46,1784 L 48.84818,1778.0012 L 51.877175,1783.9108 L 58.462554,1784.7658 L 53.778192,1789.4727 L 55,1796 z "
       transform="translate(234.84655,-1232.7818)" />
    <path
       sodipodi:type="star"
       style="opacity:1;fill:#00ffff;fill-opacity:1;stroke:#000000;stroke-width:1;stroke-linecap:round;stroke-linejoin:miter;stroke-miterlimit:4;stroke-dasharray:none;stroke-opacity:1"
       id="path6365"
       sodipodi:sides="5"
       sodipodi:cx="49"
       sodipodi:cy="1788"
       sodipodi:r1="9.9718571"
       sodipodi:r2="5"
       sodipodi:arg1="0.66485448"
       sodipodi:arg2="1.293173"
       inkscape:flatsided="false"
       inkscape:rounded="0"
       inkscape:randomized="0"
       d="M 56.847917,1794.1521 L 50.370354,1792.8085 L 45.574161,1797.3649 L 44.850262,1790.7892 L 39.034798,1787.6357 L 45.064967,1784.9153 L 46.267006,1778.41 L 50.717754,1783.3043 L 57.276119,1782.4373 L 53.996663,1788.1826 L 56.847917,1794.1521 z "
       transform="translate(253.79015,-1254.7807)" />
  </g>
</svg>
