<?xml version="1.0" encoding="UTF-8" standalone="no"?>
<!-- Created with Inkscape (http://www.inkscape.org/) -->
<svg
   xmlns:dc="http://purl.org/dc/elements/1.1/"
   xmlns:cc="http://web.resource.org/cc/"
   xmlns:rdf="http://www.w3.org/1999/02/22-rdf-syntax-ns#"
   xmlns:svg="http://www.w3.org/2000/svg"
   xmlns="http://www.w3.org/2000/svg"
   xmlns:sodipodi="http://sodipodi.sourceforge.net/DTD/sodipodi-0.dtd"
   xmlns:inkscape="http://www.inkscape.org/namespaces/inkscape"
   width="84"
   height="118"
   id="svg2456"
   sodipodi:version="0.32"
   inkscape:version="0.44+devel"
   sodipodi:modified="true"
   version="1.0">
  <defs
     id="defs2458" />
  <sodipodi:namedview
     id="base"
     pagecolor="#ffffff"
     bordercolor="#666666"
     borderopacity="1.0"
     gridtolerance="10000"
     guidetolerance="10"
     objecttolerance="10"
     inkscape:pageopacity="0.0"
     inkscape:pageshadow="2"
     inkscape:zoom="0.35"
     inkscape:cx="375"
     inkscape:cy="520"
     inkscape:document-units="px"
     inkscape:current-layer="layer1"
     inkscape:window-width="640"
     inkscape:window-height="538"
     inkscape:window-x="3"
     inkscape:window-y="28" />
  <metadata
     id="metadata2461">
    <rdf:RDF>
      <cc:Work
         rdf:about="">
        <dc:format>image/svg+xml</dc:format>
        <dc:type
           rdf:resource="http://purl.org/dc/dcmitype/StillImage" />
      </cc:Work>
    </rdf:RDF>
  </metadata>
  <g
     inkscape:label="Layer 1"
     inkscape:groupmode="layer"
     id="layer1"
     transform="translate(-272.28571,-613.36218)">
    <path
       style="fill:#ff80ff;fill-opacity:1;fill-rule:evenodd;stroke:#000000;stroke-width:5;stroke-linecap:butt;stroke-linejoin:round;stroke-miterlimit:4;stroke-dasharray:none;stroke-opacity:1"
       d="M 351.22321,699.86218 L 277.34821,699.86218 C 283.18173,716.25328 298.64732,728.86218 314.28571,728.86218 C 329.9241,728.86218 345.38969,716.25328 351.22321,699.86218 z "
       id="path4859" />
    <path
       style="fill:#ff80ff;fill-opacity:1;fill-rule:evenodd;stroke:#000000;stroke-width:5;stroke-linecap:butt;stroke-linejoin:round;stroke-miterlimit:4;stroke-dasharray:none;stroke-opacity:1"
       d="M 342.84821,645.86218 L 285.72321,645.86218 C 279.15992,659.96968 274.78571,675.89198 274.78571,686.36218 C 274.78571,691.04628 275.81447,695.55268 277.34821,699.86218 C 277.34821,699.86218 297.37946,708.86218 315.84821,708.86218 C 334.31696,708.86218 351.22321,699.86218 351.22321,699.86218 C 352.75695,695.55268 353.78571,691.04628 353.78571,686.36218 C 353.78571,675.89198 349.4115,659.96968 342.84821,645.86218 z "
       id="path4861"
       sodipodi:nodetypes="ccscscsc" />
    <path
       style="fill:#ff80ff;fill-opacity:1;fill-rule:evenodd;stroke:#000000;stroke-width:5;stroke-linecap:butt;stroke-linejoin:round;stroke-miterlimit:4;stroke-dasharray:none;stroke-opacity:1"
       d="M 314.28571,615.86218 C 303.72619,615.86218 293.26418,629.65318 285.72321,645.86218 C 285.72321,645.86218 300.56696,652.86218 314.84821,652.86218 C 329.12946,652.86218 342.84821,645.86218 342.84821,645.86218 C 335.30724,629.65318 324.84523,615.86218 314.28571,615.86218 z "
       id="path4863"
       sodipodi:nodetypes="ccscc" />
  </g>
</svg>
